Yield Curve Invesion · Kyle S
…
symbol: the FRED database ticker symbol

date: already a date object

price: the actual yield on that date

The first thing would be to join this dataframe df with the dataframe mylookup so we have a more readable version of maturities, durations, etc.

#joining two dataframes, df and mylookup, from the left. 
yield_curve <-left_join(df,mylookup,by="symbol") 

#printing the new dataframe
yield_curve

## # A tibble: 6,774 x 5
##    symbol date       price var                   maturity
##    <chr>  <date>     <dbl> <fct>                 <fct>   
##  1 TB3MS  1960-01-01  4.35 3-Month Treasury Bill 3m      
##  2 TB3MS  1960-02-01  3.96 3-Month Treasury Bill 3m      
##  3 TB3MS  1960-03-01  3.31 3-Month Treasury Bill 3m      
##  4 TB3MS  1960-04-01  3.23 3-Month Treasury Bill 3m      
##  5 TB3MS  1960-05-01  3.29 3-Month Treasury Bill 3m      
##  6 TB3MS  1960-06-01  2.46 3-Month Treasury Bill 3m      
##  7 TB3MS  1960-07-01  2.3  3-Month Treasury Bill 3m      
##  8 TB3MS  1960-08-01  2.3  3-Month Treasury Bill 3m      
##  9 TB3MS  1960-09-01  2.48 3-Month Treasury Bill 3m      
## 10 TB3MS  1960-10-01  2.3  3-Month Treasury Bill 3m      
## # … with 6,764 more rows
…
##PREPPING DATA TO PLOT

#creating new dataframe filtering for years after and including 1999 only
yield_curve1999 <- yield_curve %>%
  
  #add columns with year and month so we can later facet by year and group by month when plotting
  mutate(Year = year(date), Month = as.character(month(date))) %>%
  
  #filter for years after and including 1999 only
  filter(Year >= 1999) 

#printing table
yield_curve1999

## # A tibble: 2,610 x 7
##    symbol date       price var                   maturity  Year Month
##    <chr>  <date>     <dbl> <fct>                 <fct>    <dbl> <chr>
##  1 TB3MS  1999-01-01  4.34 3-Month Treasury Bill 3m        1999 1    
##  2 TB3MS  1999-02-01  4.44 3-Month Treasury Bill 3m        1999 2    
##  3 TB3MS  1999-03-01  4.44 3-Month Treasury Bill 3m        1999 3    
##  4 TB3MS  1999-04-01  4.29 3-Month Treasury Bill 3m        1999 4    
##  5 TB3MS  1999-05-01  4.5  3-Month Treasury Bill 3m        1999 5    
##  6 TB3MS  1999-06-01  4.57 3-Month Treasury Bill 3m        1999 6    
##  7 TB3MS  1999-07-01  4.55 3-Month Treasury Bill 3m        1999 7    
##  8 TB3MS  1999-08-01  4.72 3-Month Treasury Bill 3m        1999 8    
##  9 TB3MS  1999-09-01  4.68 3-Month Treasury Bill 3m        1999 9    
## 10 TB3MS  1999-10-01  4.86 3-Month Treasury Bill 3m        1999 10   
## # … with 2,600 more rows
…
Our result:

##PREPPING DATA FOR PLOT

#Defining new dataframe  
yield_3m_10m <- yield_curve1999 %>% 
  
  #filtering for maturities equal to 3 months or 10 years only
  filter(maturity %in% c("3m","10y"))

#printing the dataset
yield_3m_10m

## # A tibble: 522 x 7
##    symbol date       price var                   maturity  Year Month
##    <chr>  <date>     <dbl> <fct>                 <fct>    <dbl> <chr>
##  1 TB3MS  1999-01-01  4.34 3-Month Treasury Bill 3m        1999 1    
##  2 TB3MS  1999-02-01  4.44 3-Month Treasury Bill 3m        1999 2    
##  3 TB3MS  1999-03-01  4.44 3-Month Treasury Bill 3m        1999 3    
##  4 TB3MS  1999-04-01  4.29 3-Month Treasury Bill 3m        1999 4    
##  5 TB3MS  1999-05-01  4.5  3-Month Treasury Bill 3m        1999 5    
##  6 TB3MS  1999-06-01  4.57 3-Month Treasury Bill 3m        1999 6    
##  7 TB3MS  1999-07-01  4.55 3-Month Treasury Bill 3m        1999 7    
##  8 TB3MS  1999-08-01  4.72 3-Month Treasury Bill 3m        1999 8    
##  9 TB3MS  1999-09-01  4.68 3-Month Treasury Bill 3m        1999 9    
## 10 TB3MS  1999-10-01  4.86 3-Month Treasury Bill 3m        1999 10   
## # … with 512 more rows
…
        #add column called maxline, defined as follows:
        #If spread>0, then maxline=spread. Else, maxline=0.
        maxline=ifelse(spread>0,spread,0),
        
        #add column called minline, defined as follows:
        #If spread<0, then maxline=spread. Else, maxline=0.
        minline=ifelse(spread<0,spread,0)
        )
 
#print spread_df dataframe
spread_df

## # A tibble: 729 x 4
## # Groups:   date [729]
##    date       spread maxline minline
##    <date>      <dbl>   <dbl>   <dbl>
##  1 1960-01-01   0.37    0.37       0
##  2 1960-02-01   0.53    0.53       0
##  3 1960-03-01   0.94    0.94       0
##  4 1960-04-01   1.05    1.05       0
##  5 1960-05-01   1.06    1.06       0
##  6 1960-06-01   1.69    1.69       0
##  7 1960-07-01   1.6     1.6        0
##  8 1960-08-01   1.5     1.5        0
##  9 1960-09-01   1.32    1.32       0
## 10 1960-10-01   1.59    1.59       0
## # … with 719 more rows
…
