GDP components over time and among countries · Kyle S
…
At the risk of oversimplifying things, the main components of gross domestic product, GDP are personal consumption (C), business investment (I), government spending (G) and net exports (exports - imports). You can read more about GDP and the different approaches in calculating at the Wikipedia GDP page.

The GDP data we will look at is from the United Nations’ National Accounts Main Aggregates Database, which contains estimates of total GDP and its components for all countries from 1970 to today. We will look at how GDP and its components have changed over time, and compare different countries and how much each component contributes to that country’s GDP. The file we will work with is GDP and its breakdown at constant 2010 prices in US Dollars

We first load the file

UN_GDP_data  <-  read_excel(here::here("Data","Download-GDPconstant-USD-countries.xls"), # Excel filename
                sheet="Download-GDPconstant-USD-countr", # Sheet name
                skip=2) # Number of rows to skip

Then, we tidy the data. As it is in wide format, we make it into long, tidy format.

UN_GDP_data

## # A tibble: 3,685 x 51
##    CountryID Country IndicatorName  `1970`  `1971` `1972` `1973` `1974`  `1975`
##        <dbl> <chr>   <chr>           <dbl>   <dbl>  <dbl>  <dbl>  <dbl>   <dbl>
##  1         4 Afghan… Final consum… 5.56e 9 5.33e 9 5.20e9 5.75e9 6.15e9 6.32e 9
##  2         4 Afghan… Household co… 5.07e 9 4.84e 9 4.70e9 5.21e9 5.59e9 5.65e 9
##  3         4 Afghan… General gove… 3.72e 8 3.82e 8 4.02e8 4.21e8 4.31e8 5.98e 8
##  4         4 Afghan… Gross capita… 9.85e 8 1.05e 9 9.19e8 9.19e8 1.18e9 1.37e 9
##  5         4 Afghan… Gross fixed … 9.85e 8 1.05e 9 9.19e8 9.19e8 1.18e9 1.37e 9
##  6         4 Afghan… Exports of g… 1.12e 8 1.45e 8 1.73e8 2.18e8 3.00e8 3.16e 8
##  7         4 Afghan… Imports of g… 1.84e 8 2.69e 8 2.60e8 2.78e8 4.07e8 4.59e 8
##  8         4 Afghan… Gross Domest… 1.07e10 1.07e10 8.94e9 9.20e9 9.70e9 1.03e10
##  9         4 Afghan… Agriculture,… 7.99e 9 7.68e 9 7.36e9 7.90e9 8.18e9 8.45e 9
## 10         4 Afghan… Mining, Manu… 1.01e 9 1.05e 9 1.10e9 1.15e9 1.27e9 1.39e 9
## # … with 3,675 more rows, and 42 more variables: `1976` <dbl>, `1977` <dbl>,
## #   `1978` <dbl>, `1979` <dbl>, `1980` <dbl>, `1981` <dbl>, `1982` <dbl>,
## #   `1983` <dbl>, `1984` <dbl>, `1985` <dbl>, `1986` <dbl>, `1987` <dbl>,
## #   `1988` <dbl>, `1989` <dbl>, `1990` <dbl>, `1991` <dbl>, `1992` <dbl>,
## #   `1993` <dbl>, `1994` <dbl>, `1995` <dbl>, `1996` <dbl>, `1997` <dbl>,
## #   `1998` <dbl>, `1999` <dbl>, `2000` <dbl>, `2001` <dbl>, `2002` <dbl>,
## #   `2003` <dbl>, `2004` <dbl>, `2005` <dbl>, `2006` <dbl>, `2007` <dbl>,
## #   `2008` <dbl>, `2009` <dbl>, `2010` <dbl>, `2011` <dbl>, `2012` <dbl>,
## #   `2013` <dbl>, `2014` <dbl>, `2015` <dbl>, `2016` <dbl>, `2017` <dbl>
…
tidy_GDP_data

## # A tibble: 176,880 x 5
##    CountryID Country     IndicatorName Year  Expenditure
##        <dbl> <chr>       <chr>         <chr>       <dbl>
##  1         4 Afghanistan FCI           1970         5.56
##  2         4 Afghanistan FCI           1971         5.33
##  3         4 Afghanistan FCI           1972         5.20
##  4         4 Afghanistan FCI           1973         5.75
##  5         4 Afghanistan FCI           1974         6.15
##  6         4 Afghanistan FCI           1975         6.32
##  7         4 Afghanistan FCI           1976         6.37
##  8         4 Afghanistan FCI           1977         6.90
##  9         4 Afghanistan FCI           1978         7.09
## 10         4 Afghanistan FCI           1979         6.92
## # … with 176,870 more rows
…
tidy_GDP_data2 <- tidy_GDP_data %>%
                    group_by(Year) %>%
                    select(Country, 
                           Year, 
                           IndicatorName, 
                           Expenditure) %>%
                    filter(Country == "Germany" | Country == "India" | Country == "United States") %>%
                    filter(IndicatorName %in% c("Exports",
                                                "Imports",
                                                "Gross capital formation",
                                                "Government Expenditure",
                                                "Household Expenditure")) 
tidy_GDP_data2

## # A tibble: 720 x 4
## # Groups:   Year [48]
##    Country Year  IndicatorName         Expenditure
##    <chr>   <chr> <chr>                       <dbl>
##  1 Germany 1970  Household Expenditure        872.
##  2 Germany 1971  Household Expenditure        919.
##  3 Germany 1972  Household Expenditure        969.
##  4 Germany 1973  Household Expenditure        997.
##  5 Germany 1974  Household Expenditure        995.
##  6 Germany 1975  Household Expenditure       1032.
##  7 Germany 1976  Household Expenditure       1076.
##  8 Germany 1977  Household Expenditure       1122.
##  9 Germany 1978  Household Expenditure       1162.
## 10 Germany 1979  Household Expenditure       1200.
## # … with 710 more rows
…
We plot a graph for Canada, Mexico and the United States.

#plotting a graph for Canada, Mexico, and United States

country_list2 <-c("United States","India", "Germany")

tidy_GDP_data4 <- tidy_GDP_data %>%
                    group_by(Year) %>%
                    select(Country, Year, IndicatorName, Expenditure) %>%
                    filter(Country == "Canada" | Country == "Mexico" | Country == "United States") %>%
                    filter(IndicatorName %in% c("Exports", "Imports", "Gross capital formation", "Government Expenditure", "Household Expenditure" ))

tidy_GDP_data4

## # A tibble: 720 x 4
## # Groups:   Year [48]
##    Country Year  IndicatorName         Expenditure
##    <chr>   <chr> <chr>                       <dbl>
##  1 Canada  1970  Household Expenditure        266.
##  2 Canada  1971  Household Expenditure        282.
##  3 Canada  1972  Household Expenditure        301.
##  4 Canada  1973  Household Expenditure        321.
##  5 Canada  1974  Household Expenditure        338.
##  6 Canada  1975  Household Expenditure        350.
##  7 Canada  1976  Household Expenditure        368.
##  8 Canada  1977  Household Expenditure        379.
##  9 Canada  1978  Household Expenditure        390.
## 10 Canada  1979  Household Expenditure        399.
## # … with 710 more rows
…
Using the Expenditure method equation for GDP = Household Expenditure (Consumption C) + Gross Capital Formation (business investment I) + Government Expenditure (G) + Net Exports (exports - imports), we can calculate the GDP from the individual indicators in the data frame, and compare that to the GDP given.

We find the % difference between the calculated GDP and the given GDP figures included in the dataframe

#Recalculating GDP

tidy_GDP_data

## # A tibble: 176,880 x 5
##    CountryID Country     IndicatorName Year  Expenditure
##        <dbl> <chr>       <chr>         <chr>       <dbl>
##  1         4 Afghanistan FCI           1970         5.56
##  2         4 Afghanistan FCI           1971         5.33
##  3         4 Afghanistan FCI           1972         5.20
##  4         4 Afghanistan FCI           1973         5.75
##  5         4 Afghanistan FCI           1974         6.15
##  6         4 Afghanistan FCI           1975         6.32
##  7         4 Afghanistan FCI           1976         6.37
##  8         4 Afghanistan FCI           1977         6.90
##  9         4 Afghanistan FCI           1978         7.09
## 10         4 Afghanistan FCI           1979         6.92
## # … with 176,870 more rows
…
  #generate a new column with the percentage difference.
  #Note: we divide by the average of GDP and GDP_calc in the denominator as we believe this is the more correct formula to use (as opposed to just dividing by GDP_calc or GDP).
  #See the following link: https://www.mathsisfun.com/percentage-difference.html
  #It is unclear which of the two values is better suited to be the benchmark.
  #Thus, it is more mathematically rigorous to take the average of the two.
  mutate(perc_diff = (GDP - GDP_calc)/((GDP_calc+GDP)/2)) %>% 

  #arrange it for neatness
  arrange(GDP_calc)

#print tidy_GDP_data3
tidy_GDP_data3

## # A tibble: 10,464 x 5
## # Groups:   Year, Country [10,464]
##    Year  Country         GDP_calc   GDP perc_diff
##    <chr> <chr>              <dbl> <dbl>     <dbl>
##  1 1988  D.P.R. of Korea   -0.955  16.8      2.24
##  2 2001  D.P.R. of Korea   -0.836  12.8      2.28
##  3 2016  D.P.R. of Korea   -0.787  14.9      2.22
##  4 1989  D.P.R. of Korea   -0.771  17.1      2.19
##  5 2014  D.P.R. of Korea   -0.766  14.5      2.22
##  6 2006  D.P.R. of Korea   -0.766  13.9      2.23
##  7 2017  D.P.R. of Korea   -0.759  14.4      2.22
##  8 2015  D.P.R. of Korea   -0.758  14.4      2.22
##  9 2013  D.P.R. of Korea   -0.758  14.4      2.22
## 10 2012  D.P.R. of Korea   -0.751  14.2      2.22
## # … with 10,454 more rows

tidy_GDP_data_NK <- tidy_GDP_data %>% 
  filter(Country == "D.P.R. of Korea", 
         IndicatorName %in% c("Exports",
                            "Imports",
                            "Gross capital formation",
                            "Government Expenditure",
                            "Household Expenditure",
                            "GDP")
         ) %>% 
  arrange(Year)

tidy_GDP_data_NK

## # A tibble: 144 x 5
##    CountryID Country         IndicatorName Year  Expenditure
##        <dbl> <chr>           <chr>         <chr>       <dbl>
##  1       408 D.P.R. of Korea Exports       1970        0.362
##  2       408 D.P.R. of Korea Imports       1970        0.558
##  3       408 D.P.R. of Korea GDP           1970        6.72 
##  4       408 D.P.R. of Korea Exports       1971        0.399
##  5       408 D.P.R. of Korea Imports       1971        0.616
##  6       408 D.P.R. of Korea GDP           1971        7.42 
##  7       408 D.P.R. of Korea Exports       1972        0.441
##  8       408 D.P.R. of Korea Imports       1972        0.680
##  9       408 D.P.R. of Korea GDP           1972        8.19 
## 10       408 D.P.R. of Korea Exports       1973        0.486
## # … with 134 more rows
…
#finalise the table by adding a proportion (prop) column, for the prop of a given indicator w.r.t calculated GDP 
#we use calculated GDP, as these numbers must be proportions (i.e. all proportions must sum to 1)
#this would not necessarily be the case using the given GDP values
longer_GDP_data_prepped <- longer_GDP_data %>% 
  arrange(Year) %>% 
  group_by(Year, Country) %>%
  mutate(prop = Expenditure/Expenditure[IndicatorName == "GDP_cal"]) %>% 
  filter(!(IndicatorName %in%  c("Exports", "Imports", "GDP", "GDP_cal")))

#print the prepped table
longer_GDP_data_prepped

## # A tibble: 576 x 5
## # Groups:   Year, Country [144]
##    Country       Year  IndicatorName           Expenditure     prop
##    <chr>         <chr> <chr>                         <dbl>    <dbl>
##  1 Germany       1970  Household Expenditure       872.     0.552  
##  2 Germany       1970  Government Expenditure      280.     0.177  
##  3 Germany       1970  Gross capital formation     442.     0.280  
##  4 Germany       1970  Net Exports                 -13.5   -0.00857
##  5 India         1970  Household Expenditure       153.     0.717  
##  6 India         1970  Government Expenditure       18.7    0.0875 
##  7 India         1970  Gross capital formation      42.2    0.198  
##  8 India         1970  Net Exports                  -0.513 -0.00241
##  9 United States 1970  Household Expenditure      2994.     0.602  
## 10 United States 1970  Government Expenditure     1256.     0.252  
## # … with 566 more rows
…
